Apply a function within each row. — lay • lay
…
  # note that you could also wrap the output in a list and name it to obtain a list-column
  drugs |>
    mutate(usage_quantiles = lay(pick(-caseid), ~ list(quantile(.x))))
}
#> Loading required package: dplyr
#> 
#> Attaching package: ‘dplyr’
#> The following objects are masked from ‘package:stats’:
#> 
#>     filter, lag
#> The following objects are masked from ‘package:base’:
#> 
#>     intersect, setdiff, setequal, union
#> # A tibble: 100 × 9
#>    caseid hydrocd oxycodp codeine tramadl morphin methdon vicolor
#>    <chr>    <int>   <int>   <int>   <int>   <int>   <int>   <int>
#>  1 1            0       0       0       0       0       0       0
#>  2 2            0       0       0       0       0       0       0
#>  3 3            0       0       0       0       0       0       0
#>  4 4            0       0       0       0       0       0       0
#>  5 5            0       0       0       0       0       0       0
#>  6 6            0       0       0       0       0       0       0
#>  7 7            0       0       0       0       0       0       0
#>  8 8            0       0       0       0       0       0       0
#>  9 9            0       0       0       0       0       0       1
#> 10 10           0       0       0       0       0       0       0
#> # ℹ 90 more rows
#> # ℹ 1 more variable: usage_quantiles <list>
…
