Alternatives to `lay()` • lay
…
Please install them if they are not present on your system.

Alternative 1: vectorized solution

One solution is to simply do the following:

drugs_full |>
  mutate(everused = codeine | hydrocd | methdon | morphin | oxycodp | tramadl | vicolor)
#> # A tibble: 55,271 × 9
#>    caseid hydrocd oxycodp codeine tramadl morphin methdon vicolor everused
#>    <chr>    <int>   <int>   <int>   <int>   <int>   <int>   <int> <lgl>   
#>  1 1            0       0       0       0       0       0       0 FALSE   
#>  2 2            0       0       0       0       0       0       0 FALSE   
#>  3 3            0       0       0       0       0       0       0 FALSE   
#>  4 4            0       0       0       0       0       0       0 FALSE   
#>  5 5            0       0       0       0       0       0       0 FALSE   
#>  6 6            0       0       0       0       0       0       0 FALSE   
#>  7 7            0       0       0       0       0       0       0 FALSE   
#>  8 8            0       0       0       0       0       0       0 FALSE   
#>  9 9            0       0       0       0       0       0       1 TRUE    
#> 10 10           0       0       0       0       0       0       0 FALSE   
#> # ℹ 55,261 more rows
…
you need to name all columns explicitly, which can be problematic
when dealing with many columns

you are stuck with expressing your task with logical and arithmetic
operators, which is not always sufficient

Alternative 2: 100% {dplyr}

drugs |>
  rowwise() |>
  mutate(everused = any(c_across(-caseid))) |>
  ungroup()
#> # A tibble: 100 × 9
#>    caseid hydrocd oxycodp codeine tramadl morphin methdon vicolor everused
#>    <chr>    <int>   <int>   <int>   <int>   <int>   <int>   <int> <lgl>   
#>  1 1            0       0       0       0       0       0       0 FALSE   
#>  2 2            0       0       0       0       0       0       0 FALSE   
#>  3 3            0       0       0       0       0       0       0 FALSE   
#>  4 4            0       0       0       0       0       0       0 FALSE   
#>  5 5            0       0       0       0       0       0       0 FALSE   
#>  6 6            0       0       0       0       0       0       0 FALSE   
#>  7 7            0       0       0       0       0       0       0 FALSE   
#>  8 8            0       0       0       0       0       0       0 FALSE   
#>  9 9            0       0       0       0       0       0       1 TRUE    
#> 10 10           0       0       0       0       0       0       0 FALSE   
#> # ℹ 90 more rows
…
Alternative 3: {tidyr}

library(tidyr)  ## requires to have installed {tidyr}

drugs |>
  pivot_longer(-caseid) |>
  group_by(caseid) |>
  mutate(everused = any(value)) |>
  ungroup() |>
  pivot_wider() |>
  relocate(everused, .after = last_col())
#> # A tibble: 100 × 9
#>    caseid hydrocd oxycodp codeine tramadl morphin methdon vicolor everused
#>    <chr>    <int>   <int>   <int>   <int>   <int>   <int>   <int> <lgl>   
#>  1 1            0       0       0       0       0       0       0 FALSE   
#>  2 2            0       0       0       0       0       0       0 FALSE   
#>  3 3            0       0       0       0       0       0       0 FALSE   
#>  4 4            0       0       0       0       0       0       0 FALSE   
#>  5 5            0       0       0       0       0       0       0 FALSE   
#>  6 6            0       0       0       0       0       0       0 FALSE   
#>  7 7            0       0       0       0       0       0       0 FALSE   
#>  8 8            0       0       0       0       0       0       0 FALSE   
#>  9 9            0       0       0       0       0       0       1 TRUE    
#> 10 10           0       0       0       0       0       0       0 FALSE   
#> # ℹ 90 more rows

Here the trick is to turn the rowwise problem into a column problem
by pivoting the values and then pivoting the results back. Many find
that this involves a little too much intellectual gymnastic. It is also
not particularly efficient on large dataset both in terms of computation
time and memory required to pivot the tables.

Alternative 4: {purrr}

library(purrr)  ## requires to have installed {purrr}

drugs |>
  mutate(everused = pmap_lgl(pick(-caseid), ~ any(...)))
#> # A tibble: 100 × 9
#>    caseid hydrocd oxycodp codeine tramadl morphin methdon vicolor everused
#>    <chr>    <int>   <int>   <int>   <int>   <int>   <int>   <int> <lgl>   
#>  1 1            0       0       0       0       0       0       0 FALSE   
#>  2 2            0       0       0       0       0       0       0 FALSE   
#>  3 3            0       0       0       0       0       0       0 FALSE   
#>  4 4            0       0       0       0       0       0       0 FALSE   
#>  5 5            0       0       0       0       0       0       0 FALSE   
#>  6 6            0       0       0       0       0       0       0 FALSE   
#>  7 7            0       0       0       0       0       0       0 FALSE   
#>  8 8            0       0       0       0       0       0       0 FALSE   
#>  9 9            0       0       0       0       0       0       1 TRUE    
#> 10 10           0       0       0       0       0       0       0 FALSE   
#> # ℹ 90 more rows

This is a perfectly fine solution and actually part of what one
implementation of lay() relies on (if
.method = "tidy"), but from a user perspective it is a
little too geeky-scary.

Alternative 5: {slider}

library(slider)   ## requires to have installed {slider}

drugs |>
  mutate(everused = slide_vec(pick(-caseid), any))
#> # A tibble: 100 × 9
#>    caseid hydrocd oxycodp codeine tramadl morphin methdon vicolor everused
#>    <chr>    <int>   <int>   <int>   <int>   <int>   <int>   <int> <lgl>   
#>  1 1            0       0       0       0       0       0       0 FALSE   
#>  2 2            0       0       0       0       0       0       0 FALSE   
#>  3 3            0       0       0       0       0       0       0 FALSE   
#>  4 4            0       0       0       0       0       0       0 FALSE   
#>  5 5            0       0       0       0       0       0       0 FALSE   
#>  6 6            0       0       0       0       0       0       0 FALSE   
#>  7 7            0       0       0       0       0       0       0 FALSE   
#>  8 8            0       0       0       0       0       0       0 FALSE   
#>  9 9            0       0       0       0       0       0       1 TRUE    
#> 10 10           0       0       0       0       0       0       0 FALSE   
#> # ℹ 90 more rows
…
Alternative 6: {data.table}

library(data.table)  ## requires to have installed {data.table}

drugs_dt <- data.table(drugs)

drugs_dt[, ..I := .I]
drugs_dt[, everused := any(.SD), by = ..I, .SDcols = -"caseid"]
drugs_dt[, ..I := NULL]
as_tibble(drugs_dt)
#> # A tibble: 100 × 9
#>    caseid hydrocd oxycodp codeine tramadl morphin methdon vicolor everused
#>    <chr>    <int>   <int>   <int>   <int>   <int>   <int>   <int> <lgl>   
#>  1 1            0       0       0       0       0       0       0 FALSE   
#>  2 2            0       0       0       0       0       0       0 FALSE   
#>  3 3            0       0       0       0       0       0       0 FALSE   
#>  4 4            0       0       0       0       0       0       0 FALSE   
#>  5 5            0       0       0       0       0       0       0 FALSE   
#>  6 6            0       0       0       0       0       0       0 FALSE   
#>  7 7            0       0       0       0       0       0       0 FALSE   
#>  8 8            0       0       0       0       0       0       0 FALSE   
#>  9 9            0       0       0       0       0       0       1 TRUE    
#> 10 10           0       0       0       0       0       0       0 FALSE   
#> # ℹ 90 more rows

This is a solution for those using {data.table}.
It is not particularly efficient, nor particularly easy to remember for
those who do not program frequently using {data.table}.

Alternative 7: apply()

drugs |>
  mutate(everused = apply(pick(-caseid), 1L, any))
#> # A tibble: 100 × 9
#>    caseid hydrocd oxycodp codeine tramadl morphin methdon vicolor everused
#>    <chr>    <int>   <int>   <int>   <int>   <int>   <int>   <int> <lgl>   
#>  1 1            0       0       0       0       0       0       0 FALSE   
#>  2 2            0       0       0       0       0       0       0 FALSE   
#>  3 3            0       0       0       0       0       0       0 FALSE   
#>  4 4            0       0       0       0       0       0       0 FALSE   
#>  5 5            0       0       0       0       0       0       0 FALSE   
#>  6 6            0       0       0       0       0       0       0 FALSE   
#>  7 7            0       0       0       0       0       0       0 FALSE   
#>  8 8            0       0       0       0       0       0       0 FALSE   
#>  9 9            0       0       0       0       0       0       1 TRUE    
#> 10 10           0       0       0       0       0       0       0 FALSE   
#> # ℹ 90 more rows
…
Alternative 8: for (i in ...) {...}

drugs$everused <- NA

columns_in <- !colnames(drugs) %in% c("caseid", "everused")

for (i in seq_len(nrow(drugs))) {
  drugs$everused[i] <- any(drugs[i, columns_in])
}

drugs
#> # A tibble: 100 × 9
#>    caseid hydrocd oxycodp codeine tramadl morphin methdon vicolor everused
#>    <chr>    <int>   <int>   <int>   <int>   <int>   <int>   <int> <lgl>   
#>  1 1            0       0       0       0       0       0       0 FALSE   
#>  2 2            0       0       0       0       0       0       0 FALSE   
#>  3 3            0       0       0       0       0       0       0 FALSE   
#>  4 4            0       0       0       0       0       0       0 FALSE   
#>  5 5            0       0       0       0       0       0       0 FALSE   
#>  6 6            0       0       0       0       0       0       0 FALSE   
#>  7 7            0       0       0       0       0       0       0 FALSE   
#>  8 8            0       0       0       0       0       0       0 FALSE   
#>  9 9            0       0       0       0       0       0       1 TRUE    
#> 10 10           0       0       0       0       0       0       0 FALSE   
#> # ℹ 90 more rows
…
