Benchmarking alternative implementations for rowwise jobs • lay
…
Please install them if they are not present on your system.

An example of a rowwise task

Consider the dataset drugs_full from our package
{lay}:

drugs_full
#> # A tibble: 55,271 × 8
#>    caseid hydrocd oxycodp codeine tramadl morphin methdon vicolor
#>    <chr>    <int>   <int>   <int>   <int>   <int>   <int>   <int>
#>  1 1            0       0       0       0       0       0       0
#>  2 2            0       0       0       0       0       0       0
#>  3 3            0       0       0       0       0       0       0
#>  4 4            0       0       0       0       0       0       0
#>  5 5            0       0       0       0       0       0       0
#>  6 6            0       0       0       0       0       0       0
#>  7 7            0       0       0       0       0       0       0
#>  8 8            0       0       0       0       0       0       0
#>  9 9            0       0       0       0       0       0       1
#> 10 10           0       0       0       0       0       0       0
#> # ℹ 55,261 more rows
…
